{
  "__type__": "cc.SpriteAtlas",
  "_name": "mini face.plist",
  "_objFlags": 0,
  "_native": "",
  "_spriteFrames": {
    "Mini face 3": {
      "__uuid__": "3b8db065-e7c1-4ffa-bd1a-b62076dbaac2"
    },
    "mini face 1": {
      "__uuid__": "c3bdbb95-4947-489f-a243-be627ad5b7d2"
    },
    "mini face 2": {
      "__uuid__": "a530fa03-1376-4e53-8135-85dcda6ca161"
    }
  }
}