{
  "__type__": "cc.SpriteFrame",
  "content": {
    "name": "Button1",
    "texture": "7213c0f5-5829-4b66-a510-d968b506a230",
    "atlas": "",
    "rect": [
      562,
      685,
      730,
      676
    ],
    "offset": [
      -97,
      1
    ],
    "originalSize": [
      2048,
      2048
    ],
    "capInsets": [
      0,
      0,
      0,
      0
    ]
  }
}