{
  "__type__": "cc.SpriteFrame",
  "content": {
    "name": "bee-6",
    "texture": "037d7096-77b7-422c-b645-4f0b00620c92",
    "atlas": "",
    "rect": [
      6,
      9,
      25,
      25
    ],
    "offset": [
      0,
      -2
    ],
    "originalSize": [
      37,
      39
    ],
    "capInsets": [
      0,
      0,
      0,
      0
    ]
  }
}