{
  "__type__": "cc.AnimationClip",
  "_name": "fallFace",
  "_objFlags": 0,
  "_native": "",
  "_duration": 0.016666666666666666,
  "sample": 60,
  "speed": 1,
  "wrapMode": 1,
  "curveData": {
    "comps": {
      "cc.Sprite": {
        "spriteFrame": [
          {
            "frame": 0,
            "value": {
              "__uuid__": "40977432-b970-49ea-b125-9620bc8730f7"
            }
          }
        ]
      }
    }
  },
  "events": []
}