{
  "__type__": "cc.SpriteAtlas",
  "_name": "hurt face.plist",
  "_objFlags": 0,
  "_native": "",
  "_spriteFrames": {
    "Hurt face 1": {
      "__uuid__": "e3015679-5165-4d63-b141-737334c1e8f0"
    },
    "Hurt face 2": {
      "__uuid__": "291bc4ec-f5c8-4157-8cbe-0139630f72d5"
    }
  }
}