{
  "__type__": "cc.SpriteFrame",
  "content": {
    "name": "stage2_tilemap",
    "texture": "7dfedbb7-ca38-4217-a0c3-da829b80237f",
    "atlas": "",
    "rect": [
      0,
      1960,
      4800,
      2840
    ],
    "offset": [
      0,
      -980
    ],
    "originalSize": [
      4800,
      4800
    ],
    "capInsets": [
      0,
      0,
      0,
      0
    ]
  }
}