{
  "__type__": "cc.SpriteFrame",
  "content": {
    "name": "background",
    "texture": "5046753d-9b90-40a8-90d6-cde5c95b0509",
    "atlas": "",
    "rect": [
      0,
      0,
      533,
      300
    ],
    "offset": [
      0,
      0
    ],
    "originalSize": [
      533,
      300
    ],
    "capInsets": [
      0,
      0,
      0,
      0
    ]
  }
}