{
  "__type__": "cc.SpriteFrame",
  "content": {
    "name": "Face1(log in)",
    "texture": "d77a2559-5fe6-4c88-91ca-11adb75c29e0",
    "atlas": "517ff3da-456e-4474-a5c0-f0298dadd191",
    "rect": [
      0,
      0,
      960,
      640
    ],
    "offset": [
      0,
      0
    ],
    "originalSize": [
      960,
      640
    ],
    "capInsets": [
      0,
      0,
      0,
      0
    ]
  }
}