{
  "__type__": "cc.SpriteFrame",
  "content": {
    "name": "piranha-plant-attack-2",
    "texture": "394e04f2-ec16-409a-a814-e693d4283e28",
    "atlas": "",
    "rect": [
      21,
      11,
      22,
      34
    ],
    "offset": [
      1.5,
      -5.5
    ],
    "originalSize": [
      61,
      45
    ],
    "capInsets": [
      0,
      0,
      0,
      0
    ]
  }
}