{
  "__type__": "cc.SpriteFrame",
  "content": {
    "name": "store2",
    "texture": "29cba639-13ac-4d70-872e-7e6fdbbd385f",
    "atlas": "",
    "rect": [
      293,
      246,
      428,
      370
    ],
    "offset": [
      27,
      -111
    ],
    "originalSize": [
      960,
      640
    ],
    "capInsets": [
      0,
      0,
      0,
      0
    ]
  }
}