[
  {
    "__type__": "cc.Prefab",
    "_name": "",
    "_objFlags": 0,
    "_native": "",
    "data": {
      "__id__": 1
    },
    "optimizationPolicy": 0,
    "asyncLoadAssets": false,
    "readonly": false
  },
  {
    "__type__": "cc.Node",
    "_name": "Menu_manager",
    "_objFlags": 0,
    "_parent": null,
    "_children": [],
    "_active": true,
    "_components": [
      {
        "__id__": 2
      }
    ],
    "_prefab": {
      "__id__": 3
    },
    "_opacity": 255,
    "_color": {
      "__type__": "cc.Color",
      "r": 255,
      "g": 255,
      "b": 255,
      "a": 255
    },
    "_contentSize": {
      "__type__": "cc.Size",
      "width": 0,
      "height": 0
    },
    "_anchorPoint": {
      "__type__": "cc.Vec2",
      "x": 0.5,
      "y": 0.5
    },
    "_trs": {
      "__type__": "TypedArray",
      "ctor": "Float64Array",
      "array": [
        0,
        0,
        0,
        0,
        0,
        0,
        1,
        1,
        1,
        1
      ]
    },
    "_eulerAngles": {
      "__type__": "cc.Vec3",
      "x": 0,
      "y": 0,
      "z": 0
    },
    "_skewX": 0,
    "_skewY": 0,
    "_is3DNode": false,
    "_groupIndex": 0,
    "groupIndex": 0,
    "_id": ""
  },
  {
    "__type__": "b499aPnq3RO84kkrhZCRuFj",
    "_name": "",
    "_objFlags": 0,
    "node": {
      "__id__": 1
    },
    "_enabled": true,
    "setting_box": null,
    "rule_box": null,
    "skin1": {
      "__uuid__": "36a43005-ca33-4dea-99dc-df9b405f781f"
    },
    "skin2": {
      "__uuid__": "a10b5d68-07c3-442c-a0b2-5f17b8e2c06b"
    },
    "skin3": {
      "__uuid__": "e4a38591-8dbb-42b3-a58b-00dfe169f3b6"
    },
    "skin4": {
      "__uuid__": "efa188f6-56e3-49db-a2ed-cf3569333c15"
    },
    "skin5": {
      "__uuid__": "bb267771-7756-472a-9102-eda5d1cd4448"
    },
    "skin6": {
      "__uuid__": "60b54895-0ed4-445f-9128-0fd14ba91a19"
    },
    "skin7": {
      "__uuid__": "a4261fde-c389-4bd2-a09a-d00b75e91b58"
    },
    "_id": ""
  },
  {
    "__type__": "cc.PrefabInfo",
    "root": {
      "__id__": 1
    },
    "asset": {
      "__id__": 0
    },
    "fileId": "fbiPNYlUNDx4uliRcpOPtR",
    "sync": false
  }
]